314 holy grail/lab5 (1)/Potensiometer_3k_ohms.csv

Record Length,2500,Points,-2.50E-04,-4.00E-02,,Record Length,2500,Points,-2.50E-04,1.76E-01
Sample Interval,2.00E-07,s,-2.50E-04,-5.60E-02,,Sample Interval,2.00E-07,s,-2.50E-04,1.80E-01
Trigger Point,1.25E+03,Samples,-2.50E-04,-4.80E-02,,Trigger Point,1.25E+03,Samples,-2.50E-04,1.88E-01
,,,-2.49E-04,-4.80E-02,,,,,-2.49E-04,1.88E-01
,,,-2.49E-04,-4.80E-02,,,,,-2.49E-04,1.96E-01
,,,-2.49E-04,-4.80E-02,,,,,-2.49E-04,1.96E-01
Source,CH1,,-2.49E-04,-4.80E-02,,Source,CH2,,-2.49E-04,1.92E-01
Vertical Units,Volts,,-2.49E-04,-5.60E-02,,Vertical Units,Volts,,-2.49E-04,2.00E-01
Vertical Scale,2.05E-01,,-2.48E-04,-5.60E-02,,Vertical Scale,1.02E-01,,-2.48E-04,2.12E-01
Vertical Offset,0,,-2.48E-04,-6.40E-02,,Vertical Offset,0,,-2.48E-04,2.08E-01
Horizontal Units,s,,-2.48E-04,-5.60E-02,,Horizontal Units,s,,-2.48E-04,2.08E-01
Horizontal Scale,5.00E-05,,-2.48E-04,-5.60E-02,,Horizontal Scale,5.00E-05,,-2.48E-04,2.24E-01
Pt Fmt,Y,,-2.48E-04,-5.60E-02,,Pt Fmt,Y,,-2.48E-04,2.20E-01
Yzero,0,,-2.47E-04,-5.60E-02,,Yzero,0,,-2.47E-04,2.20E-01
Probe Atten,1,,-2.47E-04,-6.40E-02,,Probe Atten,1,,-2.47E-04,2.32E-01
,,,-2.47E-04,-6.40E-02,,,,,-2.47E-04,2.40E-01
Note,TDS 2012 - 11:53:09 AM   3/14/2018,,-2.47E-04,-5.60E-02,,Note,TDS 2012 - 11:53:09 AM   3/14/2018,,-2.47E-04,2.44E-01
,,,-2.47E-04,-6.40E-02,,,,,-2.47E-04,2.40E-01
,,,-2.46E-04,-6.40E-02,,,,,-2.46E-04,2.44E-01
,,,-2.46E-04,-6.40E-02,,,,,-2.46E-04,2.56E-01
,,,-2.46E-04,-6.40E-02,,,,,-2.46E-04,2.56E-01
,,,-2.46E-04,-6.40E-02,,,,,-2.46E-04,2.64E-01
,,,-2.46E-04,-7.20E-02,,,,,-2.46E-04,2.60E-01
,,,-2.45E-04,-7.20E-02,,,,,-2.45E-04,2.56E-01
,,,-2.45E-04,-5.60E-02,,,,,-2.45E-04,2.72E-01
,,,-2.45E-04,-7.20E-02,,,,,-2.45E-04,2.76E-01
,,,-2.45E-04,-7.20E-02,,,,,-2.45E-04,2.76E-01
,,,-2.45E-04,-7.20E-02,,,,,-2.45E-04,2.76E-01
,,,-2.44E-04,-8.00E-02,,,,,-2.44E-04,2.84E-01
,,,-2.44E-04,-7.20E-02,,,,,-2.44E-04,2.92E-01
,,,-2.44E-04,-7.20E-02,,,,,-2.44E-04,2.88E-01
,,,-2.44E-04,-7.20E-02,,,,,-2.44E-04,2.92E-01
,,,-2.44E-04,-8.00E-02,,,,,-2.44E-04,3.00E-01
,,,-2.43E-04,-7.20E-02,,,,,-2.43E-04,2.96E-01
,,,-2.43E-04,-8.80E-02,,,,,-2.43E-04,3.04E-01
,,,-2.43E-04,-8.00E-02,,,,,-2.43E-04,3.00E-01
,,,-2.43E-04,-8.80E-02,,,,,-2.43E-04,3.08E-01
,,,-2.43E-04,-8.00E-02,,,,,-2.43E-04,3.08E-01
,,,-2.42E-04,-8.00E-02,,,,,-2.42E-04,3.12E-01
,,,-2.42E-04,-8.00E-02,,,,,-2.42E-04,3.24E-01
,,,-2.42E-04,-8.00E-02,,,,,-2.42E-04,3.20E-01
,,,-2.42E-04,-8.00E-02,,,,,-2.42E-04,3.20E-01
,,,-2.42E-04,-9.60E-02,,,,,-2.42E-04,3.20E-01
,,,-2.41E-04,-8.80E-02,,,,,-2.41E-04,3.28E-01
,,,-2.41E-04,-8.00E-02,,,,,-2.41E-04,3.32E-01
,,,-2.41E-04,-8.00E-02,,,,,-2.41E-04,3.28E-01
,,,-2.41E-04,-8.00E-02,,,,,-2.41E-04,3.32E-01
,,,-2.41E-04,-8.00E-02,,,,,-2.41E-04,3.36E-01
,,,-2.40E-04,-8.80E-02,,,,,-2.40E-04,3.40E-01
,,,-2.40E-04,-8.00E-02,,,,,-2.40E-04,3.44E-01
,,,-2.40E-04,-8.80E-02,,,,,-2.40E-04,3.48E-01
,,,-2.40E-04,-9.60E-02,,,,,-2.40E-04,3.44E-01
,,,-2.40E-04,-8.80E-02,,,,,-2.40E-04,3.48E-01
,,,-2.39E-04,-8.80E-02,,,,,-2.39E-04,3.48E-01
,,,-2.39E-04,-9.60E-02,,,,,-2.39E-04,3.52E-01
,,,-2.39E-04,-8.80E-02,,,,,-2.39E-04,3.56E-01
,,,-2.39E-04,-9.60E-02,,,,,-2.39E-04,3.56E-01
,,,-2.39E-04,-8.80E-02,,,,,-2.39E-04,3.56E-01
,,,-2.38E-04,-8.80E-02,,,,,-2.38E-04,3.56E-01
,,,-2.38E-04,-9.60E-02,,,,,-2.38E-04,3.56E-01
,,,-2.38E-04,-9.60E-02,,,,,-2.38E-04,3.64E-01
,,,-2.38E-04,-9.60E-02,,,,,-2.38E-04,3.72E-01
,,,-2.38E-04,-9.60E-02,,,,,-2.38E-04,3.68E-01
,,,-2.37E-04,-9.60E-02,,,,,-2.37E-04,3.68E-01
,,,-2.37E-04,-8.80E-02,,,,,-2.37E-04,3.72E-01
,,,-2.37E-04,-9.60E-02,,,,,-2.37E-04,3.76E-01
,,,-2.37E-04,-8.80E-02,,,,,-2.37E-04,3.68E-01
,,,-2.37E-04,-1.04E-01,,,,,-2.37E-04,3.72E-01
,,,-2.36E-04,-8.80E-02,,,,,-2.36E-04,3.72E-01
,,,-2.36E-04,-9.60E-02,,,,,-2.36E-04,3.80E-01
,,,-2.36E-04,-8.80E-02,,,,,-2.36E-04,3.80E-01
,,,-2.36E-04,-1.04E-01,,,,,-2.36E-04,3.84E-01
,,,-2.36E-04,-9.60E-02,,,,,-2.36E-04,3.88E-01
,,,-2.35E-04,-9.60E-02,,,,,-2.35E-04,3.84E-01
,,,-2.35E-04,-9.60E-02,,,,,-2.35E-04,3.84E-01
,,,-2.35E-04,-1.04E-01,,,,,-2.35E-04,3.84E-01
,,,-2.35E-04,-9.60E-02,,,,,-2.35E-04,3.84E-01
,,,-2.35E-04,-8.80E-02,,,,,-2.35E-04,3.88E-01
,,,-2.34E-04,-8.80E-02,,,,,-2.34E-04,3.88E-01
,,,-2.34E-04,-8.80E-02,,,,,-2.34E-04,3.88E-01
,,,-2.34E-04,-1.04E-01,,,,,-2.34E-04,3.88E-01
,,,-2.34E-04,-9.60E-02,,,,,-2.34E-04,3.88E-01
,,,-2.34E-04,-8.80E-02,,,,,-2.34E-04,3.92E-01
,,,-2.33E-04,-9.60E-02,,,,,-2.33E-04,3.88E-01
,,,-2.33E-04,-9.60E-02,,,,,-2.33E-04,3.84E-01
,,,-2.33E-04,-9.60E-02,,,,,-2.33E-04,3.92E-01
,,,-2.33E-04,-1.04E-01,,,,,-2.33E-04,3.88E-01
,,,-2.33E-04,-9.60E-02,,,,,-2.33E-04,3.88E-01
,,,-2.32E-04,-1.04E-01,,,,,-2.32E-04,3.92E-01
,,,-2.32E-04,-9.60E-02,,,,,-2.32E-04,3.92E-01
,,,-2.32E-04,-1.04E-01,,,,,-2.32E-04,3.96E-01
,,,-2.32E-04,-9.60E-02,,,,,-2.32E-04,3.92E-01
,,,-2.32E-04,-9.60E-02,,,,,-2.32E-04,3.92E-01
,,,-2.31E-04,-1.12E-01,,,,,-2.31E-04,3.88E-01
,,,-2.31E-04,-9.60E-02,,,,,-2.31E-04,3.88E-01
,,,-2.31E-04,-1.04E-01,,,,,-2.31E-04,3.88E-01
,,,-2.31E-04,-1.04E-01,,,,,-2.31E-04,3.84E-01
,,,-2.31E-04,-9.60E-02,,,,,-2.31E-04,3.88E-01
,,,-2.30E-04,-1.04E-01,,,,,-2.30E-04,3.88E-01
,,,-2.30E-04,-8.80E-02,,,,,-2.30E-04,3.88E-01
,,,-2.30E-04,-1.04E-01,,,,,-2.30E-04,3.84E-01
,,,-2.30E-04,-1.04E-01,,,,,-2.30E-04,3.80E-01
,,,-2.30E-04,-1.04E-01,,,,,-2.30E-04,3.84E-01
,,,-2.29E-04,-9.60E-02,,,,,-2.29E-04,3.80E-01
,,,-2.29E-04,-9.60E-02,,,,,-2.29E-04,3.84E-01
,,,-2.29E-04,-8.80E-02,,,,,-2.29E-04,3.80E-01
,,,-2.29E-04,-9.60E-02,,,,,-2.29E-04,3.76E-01
,,,-2.29E-04,-1.04E-01,,,,,-2.29E-04,3.80E-01
,,,-2.28E-04,-9.60E-02,,,,,-2.28E-04,3.68E-01
,,,-2.28E-04,-9.60E-02,,,,,-2.28E-04,3.68E-01
,,,-2.28E-04,-9.60E-02,,,,,-2.28E-04,3.72E-01
,,,-2.28E-04,-8.80E-02,,,,,-2.28E-04,3.72E-01
,,,-2.28E-04,-8.80E-02,,,,,-2.28E-04,3.72E-01
,,,-2.27E-04,-9.60E-02,,,,,-2.27E-04,3.72E-01
,,,-2.27E-04,-9.60E-02,,,,,-2.27E-04,3.72E-01
,,,-2.27E-04,-8.80E-02,,,,,-2.27E-04,3.72E-01
,,,-2.27E-04,-8.80E-02,,,,,-2.27E-04,3.64E-01
,,,-2.27E-04,-8.80E-02,,,,,-2.27E-04,3.60E-01
,,,-2.26E-04,-8.80E-02,,,,,-2.26E-04,3.60E-01
,,,-2.26E-04,-9.60E-02,,,,,-2.26E-04,3.60E-01
,,,-2.26E-04,-8.00E-02,,,,,-2.26E-04,3.56E-01
,,,-2.26E-04,-9.60E-02,,,,,-2.26E-04,3.52E-01
,,,-2.26E-04,-8.80E-02,,,,,-2.26E-04,3.52E-01
,,,-2.25E-04,-8.80E-02,,,,,-2.25E-04,3.60E-01
,,,-2.25E-04,-8.80E-02,,,,,-2.25E-04,3.56E-01
,,,-2.25E-04,-8.80E-02,,,,,-2.25E-04,3.52E-01
,,,-2.25E-04,-1.04E-01,,,,,-2.25E-04,3.44E-01
,,,-2.25E-04,-8.80E-02,,,,,-2.25E-04,3.52E-01
,,,-2.24E-04,-8.00E-02,,,,,-2.24E-04,3.44E-01
,,,-2.24E-04,-8.80E-02,,,,,-2.24E-04,3.40E-01
,,,-2.24E-04,-8.80E-02,,,,,-2.24E-04,3.40E-01
,,,-2.24E-04,-9.60E-02,,,,,-2.24E-04,3.32E-01
,,,-2.24E-04,-8.00E-02,,,,,-2.24E-04,3.36E-01
,,,-2.23E-04,-8.80E-02,,,,,-2.23E-04,3.28E-01
,,,-2.23E-04,-8.80E-02,,,,,-2.23E-04,3.28E-01
,,,-2.23E-04,-8.80E-02,,,,,-2.23E-04,3.28E-01
,,,-2.23E-04,-8.00E-02,,,,,-2.23E-04,3.24E-01
,,,-2.23E-04,-7.20E-02,,,,,-2.23E-04,3.20E-01
,,,-2.22E-04,-8.00E-02,,,,,-2.22E-04,3.20E-01
,,,-2.22E-04,-8.00E-02,,,,,-2.22E-04,3.16E-01
,,,-2.22E-04,-7.20E-02,,,,,-2.22E-04,3.12E-01
,,,-2.22E-04,-8.80E-02,,,,,-2.22E-04,3.04E-01
,,,-2.22E-04,-8.00E-02,,,,,-2.22E-04,3.04E-01
,,,-2.21E-04,-8.00E-02,,,,,-2.21E-04,3.04E-01
,,,-2.21E-04,-8.00E-02,,,,,-2.21E-04,3.04E-01
,,,-2.21E-04,-6.40E-02,,,,,-2.21E-04,2.92E-01
,,,-2.21E-04,-8.00E-02,,,,,-2.21E-04,2.88E-01
,,,-2.21E-04,-7.20E-02,,,,,-2.21E-04,2.92E-01
,,,-2.20E-04,-6.40E-02,,,,,-2.20E-04,2.92E-01
,,,-2.20E-04,-6.40E-02,,,,,-2.20E-04,2.84E-01
,,,-2.20E-04,-7.20E-02,,,,,-2.20E-04,2.76E-01
,,,-2.20E-04,-7.20E-02,,,,,-2.20E-04,2.76E-01
,,,-2.20E-04,-7.20E-02,,,,,-2.20E-04,2.72E-01
,,,-2.19E-04,-6.40E-02,,,,,-2.19E-04,2.72E-01
,,,-2.19E-04,-7.20E-02,,,,,-2.19E-04,2.68E-01
,,,-2.19E-04,-6.40E-02,,,,,-2.19E-04,2.68E-01
,,,-2.19E-04,-7.20E-02,,,,,-2.19E-04,2.60E-01
,,,-2.19E-04,-5.60E-02,,,,,-2.19E-04,2.52E-01
,,,-2.18E-04,-7.20E-02,,,,,-2.18E-04,2.48E-01
,,,-2.18E-04,-5.60E-02,,,,,-2.18E-04,2.48E-01
,,,-2.18E-04,-5.60E-02,,,,,-2.18E-04,2.44E-01
,,,-2.18E-04,-5.60E-02,,,,,-2.18E-04,2.40E-01
,,,-2.18E-04,-4.80E-02,,,,,-2.18E-04,2.32E-01
,,,-2.17E-04,-6.40E-02,,,,,-2.17E-04,2.32E-01
,,,-2.17E-04,-5.60E-02,,,,,-2.17E-04,2.24E-01
,,,-2.17E-04,-5.60E-02,,,,,-2.17E-04,2.20E-01
,,,-2.17E-04,-4.80E-02,,,,,-2.17E-04,2.20E-01
,,,-2.17E-04,-4.80E-02,,,,,-2.17E-04,2.16E-01
,,,-2.16E-04,-4.00E-02,,,,,-2.16E-04,2.12E-01
,,,-2.16E-04,-4.00E-02,,,,,-2.16E-04,2.04E-01
,,,-2.16E-04,-4.80E-02,,,,,-2.16E-04,2.08E-01
,,,-2.16E-04,-4.80E-02,,,,,-2.16E-04,2.00E-01
,,,-2.16E-04,-4.80E-02,,,,,-2.16E-04,1.96E-01
,,,-2.15E-04,-4.00E-02,,,,,-2.15E-04,1.92E-01
,,,-2.15E-04,-4.80E-02,,,,,-2.15E-04,1.92E-01
,,,-2.15E-04,-5.60E-02,,,,,-2.15E-04,1.84E-01
,,,-2.15E-04,-4.80E-02,,,,,-2.15E-04,1.80E-01
,,,-2.15E-04,-4.00E-02,,,,,-2.15E-04,1.72E-01
,,,-2.14E-04,-4.00E-02,,,,,-2.14E-04,1.72E-01
,,,-2.14E-04,-4.00E-02,,,,,-2.14E-04,1.68E-01
,,,-2.14E-04,-4.80E-02,,,,,-2.14E-04,1.60E-01
,,,-2.14E-04,-3.20E-02,,,,,-2.14E-04,1.60E-01
,,,-2.14E-04,-4.00E-02,,,,,-2.14E-04,1.52E-01
,,,-2.13E-04,-4.00E-02,,,,,-2.13E-04,1.44E-01
,,,-2.13E-04,-4.00E-02,,,,,-2.13E-04,1.44E-01
,,,-2.13E-04,-4.00E-02,,,,,-2.13E-04,1.36E-01
,,,-2.13E-04,-3.20E-02,,,,,-2.13E-04,1.32E-01
,,,-2.13E-04,-3.20E-02,,,,,-2.13E-04,1.32E-01
,,,-2.12E-04,-2.40E-02,,,,,-2.12E-04,1.24E-01
,,,-2.12E-04,-3.20E-02,,,,,-2.12E-04,1.24E-01
,,,-2.12E-04,-2.40E-02,,,,,-2.12E-04,1.16E-01
,,,-2.12E-04,-2.40E-02,,,,,-2.12E-04,1.12E-01
,,,-2.12E-04,-3.20E-02,,,,,-2.12E-04,1.08E-01
,,,-2.11E-04,-2.40E-02,,,,,-2.11E-04,1.00E-01
,,,-2.11E-04,-1.60E-02,,,,,-2.11E-04,9.20E-02
,,,-2.11E-04,-2.40E-02,,,,,-2.11E-04,9.60E-02
,,,-2.11E-04,-1.60E-02,,,,,-2.11E-04,9.60E-02
,,,-2.11E-04,-2.40E-02,,,,,-2.11E-04,8.00E-02
,,,-2.10E-04,-8.00E-03,,,,,-2.10E-04,7.60E-02
,,,-2.10E-04,-1.60E-02,,,,,-2.10E-04,7.60E-02
,,,-2.10E-04,-1.60E-02,,,,,-2.10E-04,6.80E-02
,,,-2.10E-04,-8.00E-03,,,,,-2.10E-04,6.00E-02
,,,-2.10E-04,-1.60E-02,,,,,-2.10E-04,6.00E-02
,,,-2.09E-04,-2.40E-02,,,,,-2.09E-04,5.60E-02
,,,-2.09E-04,0,,,,,-2.09E-04,4.80E-02
,,,-2.09E-04,-1.60E-02,,,,,-2.09E-04,4.00E-02
,,,-2.09E-04,-8.00E-03,,,,,-2.09E-04,4.00E-02
,,,-2.09E-04,-8.00E-03,,,,,-2.09E-04,3.20E-02
,,,-2.08E-04,-8.00E-03,,,,,-2.08E-04,2.40E-02
,,,-2.08E-04,-8.00E-03,,,,,-2.08E-04,2.00E-02
,,,-2.08E-04,0,,,,,-2.08E-04,2.40E-02
,,,-2.08E-04,0,,,,,-2.08E-04,1.20E-02
,,,-2.08E-04,0,,,,,-2.08E-04,1.60E-02
,,,-2.07E-04,0,,,,,-2.07E-04,4.00E-03
,,,-2.07E-04,1.60E-02,,,,,-2.07E-04,-4.00E-03
,,,-2.07E-04,0,,,,,-2.07E-04,-4.00E-03
,,,-2.07E-04,0,,,,,-2.07E-04,-1.60E-02
,,,-2.07E-04,8.00E-03,,,,,-2.07E-04,-1.60E-02
,,,-2.06E-04,8.00E-03,,,,,-2.06E-04,-2.00E-02
,,,-2.06E-04,8.00E-03,,,,,-2.06E-04,-2.80E-02
,,,-2.06E-04,8.00E-03,,,,,-2.06E-04,-3.20E-02
,,,-2.06E-04,1.60E-02,,,,,-2.06E-04,-4.00E-02
,,,-2.06E-04,1.60E-02,,,,,-2.06E-04,-4.00E-02
,,,-2.05E-04,8.00E-03,,,,,-2.05E-04,-4.00E-02
,,,-2.05E-04,1.60E-02,,,,,-2.05E-04,-4.80E-02
,,,-2.05E-04,2.40E-02,,,,,-2.05E-04,-5.20E-02
,,,-2.05E-04,2.40E-02,,,,,-2.05E-04,-5.60E-02
,,,-2.05E-04,2.40E-02,,,,,-2.05E-04,-6.40E-02
,,,-2.04E-04,2.40E-02,,,,,-2.04E-04,-6.80E-02
,,,-2.04E-04,2.40E-02,,,,,-2.04E-04,-7.60E-02
,,,-2.04E-04,1.60E-02,,,,,-2.04E-04,-8.00E-02
,,,-2.04E-04,2.40E-02,,,,,-2.04E-04,-8.40E-02
,,,-2.04E-04,1.60E-02,,,,,-2.04E-04,-8.80E-02
,,,-2.03E-04,2.40E-02,,,,,-2.03E-04,-9.20E-02
,,,-2.03E-04,2.40E-02,,,,,-2.03E-04,-9.60E-02
,,,-2.03E-04,2.40E-02,,,,,-2.03E-04,-1.00E-01
,,,-2.03E-04,2.40E-02,,,,,-2.03E-04,-1.08E-01
,,,-2.03E-04,4.00E-02,,,,,-2.03E-04,-1.08E-01
,,,-2.02E-04,4.80E-02,,,,,-2.02E-04,-1.16E-01
,,,-2.02E-04,3.20E-02,,,,,-2.02E-04,-1.20E-01
,,,-2.02E-04,3.20E-02,,,,,-2.02E-04,-1.28E-01
,,,-2.02E-04,3.20E-02,,,,,-2.02E-04,-1.28E-01
,,,-2.02E-04,3.20E-02,,,,,-2.02E-04,-1.32E-01
,,,-2.01E-04,4.00E-02,,,,,-2.01E-04,-1.40E-01
,,,-2.01E-04,4.00E-02,,,,,-2.01E-04,-1.44E-01
,,,-2.01E-04,4.00E-02,,,,,-2.01E-04,-1.56E-01
,,,-2.01E-04,4.00E-02,,,,,-2.01E-04,-1.52E-01
,,,-2.01E-04,4.80E-02,,,,,-2.01E-04,-1.56E-01
,,,-2.00E-04,4.80E-02,,,,,-2.00E-04,-1.60E-01
,,,-2.00E-04,4.00E-02,,,,,-2.00E-04,-1.68E-01
,,,-2.00E-04,4.00E-02,,,,,-2.00E-04,-1.76E-01
,,,-2.00E-04,4.80E-02,,,,,-2.00E-04,-1.80E-01
,,,-2.00E-04,4.80E-02,,,,,-2.00E-04,-1.80E-01
,,,-1.99E-04,6.40E-02,,,,,-1.99E-04,-1.84E-01
,,,-1.99E-04,4.80E-02,,,,,-1.99E-04,-1.88E-01
,,,-1.99E-04,5.60E-02,,,,,-1.99E-04,-1.96E-01
,,,-1.99E-04,4.80E-02,,,,,-1.99E-04,-1.92E-01
,,,-1.99E-04,5.60E-02,,,,,-1.99E-04,-2.00E-01
,,,-1.98E-04,4.80E-02,,,,,-1.98E-04,-2.08E-01
,,,-1.98E-04,5.60E-02,,,,,-1.98E-04,-2.08E-01
,,,-1.98E-04,5.60E-02,,,,,-1.98E-04,-2.12E-01
,,,-1.98E-04,5.60E-02,,,,,-1.98E-04,-2.20E-01
,,,-1.98E-04,4.80E-02,,,,,-1.98E-04,-2.20E-01
,,,-1.97E-04,5.60E-02,,,,,-1.97E-04,-2.24E-01
,,,-1.97E-04,6.40E-02,,,,,-1.97E-04,-2.32E-01
,,,-1.97E-04,5.60E-02,,,,,-1.97E-04,-2.36E-01
,,,-1.97E-04,6.40E-02,,,,,-1.97E-04,-2.32E-01
,,,-1.97E-04,6.40E-02,,,,,-1.97E-04,-2.36E-01
,,,-1.96E-04,6.40E-02,,,,,-1.96E-04,-2.48E-01
,,,-1.96E-04,6.40E-02,,,,,-1.96E-04,-2.48E-01
,,,-1.96E-04,7.20E-02,,,,,-1.96E-04,-2.52E-01
,,,-1.96E-04,7.20E-02,,,,,-1.96E-04,-2.60E-01
,,,-1.96E-04,5.60E-02,,,,,-1.96E-04,-2.60E-01
,,,-1.95E-04,6.40E-02,,,,,-1.95E-04,-2.60E-01
,,,-1.95E-04,6.40E-02,,,,,-1.95E-04,-2.68E-01
,,,-1.95E-04,7.20E-02,,,,,-1.95E-04,-2.64E-01
,,,-1.95E-04,7.20E-02,,,,,-1.95E-04,-2.76E-01
,,,-1.95E-04,8.00E-02,,,,,-1.95E-04,-2.76E-01
,,,-1.94E-04,8.00E-02,,,,,-1.94E-04,-2.80E-01
,,,-1.94E-04,7.20E-02,,,,,-1.94E-04,-2.84E-01
,,,-1.94E-04,8.00E-02,,,,,-1.94E-04,-2.84E-01
,,,-1.94E-04,7.20E-02,,,,,-1.94E-04,-2.88E-01
,,,-1.94E-04,7.20E-02,,,,,-1.94E-04,-2.96E-01
,,,-1.93E-04,7.20E-02,,,,,-1.93E-04,-3.00E-01
,,,-1.93E-04,8.80E-02,,,,,-1.93E-04,-3.00E-01
,,,-1.93E-04,8.00E-02,,,,,-1.93E-04,-2.96E-01
,,,-1.93E-04,8.00E-02,,,,,-1.93E-04,-3.04E-01
,,,-1.93E-04,8.00E-02,,,,,-1.93E-04,-3.04E-01
,,,-1.92E-04,8.00E-02,,,,,-1.92E-04,-3.08E-01
,,,-1.92E-04,8.80E-02,,,,,-1.92E-04,-3.12E-01
,,,-1.92E-04,8.00E-02,,,,,-1.92E-04,-3.16E-01
,,,-1.92E-04,7.20E-02,,,,,-1.92E-04,-3.16E-01
,,,-1.92E-04,8.80E-02,,,,,-1.92E-04,-3.20E-01
,,,-1.91E-04,8.80E-02,,,,,-1.91E-04,-3.28E-01
,,,-1.91E-04,8.00E-02,,,,,-1.91E-04,-3.28E-01
,,,-1.91E-04,8.80E-02,,,,,-1.91E-04,-3.28E-01
,,,-1.91E-04,8.00E-02,,,,,-1.91E-04,-3.32E-01
,,,-1.91E-04,9.60E-02,,,,,-1.91E-04,-3.40E-01
,,,-1.90E-04,8.00E-02,,,,,-1.90E-04,-3.36E-01
,,,-1.90E-04,8.80E-02,,,,,-1.90E-04,-3.40E-01
,,,-1.90E-04,9.60E-02,,,,,-1.90E-04,-3.40E-01
,,,-1.90E-04,8.80E-02,,,,,-1.90E-04,-3.44E-01
,,,-1.90E-04,8.80E-02,,,,,-1.90E-04,-3.44E-01
,,,-1.89E-04,8.00E-02,,,,,-1.89E-04,-3.52E-01
,,,-1.89E-04,9.60E-02,,,,,-1.89E-04,-3.48E-01
,,,-1.89E-04,8.80E-02,,,,,-1.89E-04,-3.48E-01
,,,-1.89E-04,9.60E-02,,,,,-1.89E-04,-3.52E-01
,,,-1.89E-04,8.80E-02,,,,,-1.89E-04,-3.60E-01
,,,-1.88E-04,8.80E-02,,,,,-1.88E-04,-3.56E-01
,,,-1.88E-04,8.80E-02,,,,,-1.88E-04,-3.60E-01
,,,-1.88E-04,9.60E-02,,,,,-1.88E-04,-3.60E-01
,,,-1.88E-04,9.60E-02,,,,,-1.88E-04,-3.60E-01
,,,-1.88E-04,9.60E-02,,,,,-1.88E-04,-3.64E-01
,,,-1.87E-04,1.04E-01,,,,,-1.87E-04,-3.64E-01
,,,-1.87E-04,1.04E-01,,,,,-1.87E-04,-3.68E-01
,,,-1.87E-04,9.60E-02,,,,,-1.87E-04,-3.64E-01
,,,-1.87E-04,1.04E-01,,,,,-1.87E-04,-3.72E-01
,,,-1.87E-04,9.60E-02,,,,,-1.87E-04,-3.72E-01
,,,-1.86E-04,9.60E-02,,,,,-1.86E-04,-3.76E-01
,,,-1.86E-04,9.60E-02,,,,,-1.86E-04,-3.76E-01
,,,-1.86E-04,1.04E-01,,,,,-1.86E-04,-3.80E-01
,,,-1.86E-04,9.60E-02,,,,,-1.86E-04,-3.80E-01
,,,-1.86E-04,9.60E-02,,,,,-1.86E-04,-3.80E-01
,,,-1.85E-04,1.04E-01,,,,,-1.85E-04,-3.76E-01
,,,-1.85E-04,9.60E-02,,,,,-1.85E-04,-3.84E-01
,,,-1.85E-04,1.04E-01,,,,,-1.85E-04,-3.80E-01
,,,-1.85E-04,8.80E-02,,,,,-1.85E-04,-3.76E-01
,,,-1.85E-04,9.60E-02,,,,,-1.85E-04,-3.88E-01
,,,-1.84E-04,1.04E-01,,,,,-1.84E-04,-3.80E-01
,,,-1.84E-04,9.60E-02,,,,,-1.84E-04,-3.84E-01
,,,-1.84E-04,1.12E-01,,,,,-1.84E-04,-3.84E-01
,,,-1.84E-04,8.00E-02,,,,,-1.84E-04,-3.84E-01
,,,-1.84E-04,1.04E-01,,,,,-1.84E-04,-3.84E-01
,,,-1.83E-04,9.60E-02,,,,,-1.83E-04,-3.84E-01
,,,-1.83E-04,1.04E-01,,,,,-1.83E-04,-3.84E-01
,,,-1.83E-04,9.60E-02,,,,,-1.83E-04,-3.80E-01
,,,-1.83E-04,9.60E-02,,,,,-1.83E-04,-3.84E-01
,,,-1.83E-04,1.04E-01,,,,,-1.83E-04,-3.88E-01
,,,-1.82E-04,9.60E-02,,,,,-1.82E-04,-3.88E-01
,,,-1.82E-04,1.04E-01,,,,,-1.82E-04,-3.84E-01
,,,-1.82E-04,9.60E-02,,,,,-1.82E-04,-3.84E-01
,,,-1.82E-04,1.04E-01,,,,,-1.82E-04,-3.88E-01
,,,-1.82E-04,1.04E-01,,,,,-1.82E-04,-3.84E-01
,,,-1.81E-04,1.04E-01,,,,,-1.81E-04,-3.84E-01
,,,-1.81E-04,9.60E-02,,,,,-1.81E-04,-3.84E-01
,,,-1.81E-04,1.04E-01,,,,,-1.81E-04,-3.88E-01
,,,-1.81E-04,1.04E-01,,,,,-1.81E-04,-3.84E-01
,,,-1.81E-04,9.60E-02,,,,,-1.81E-04,-3.84E-01
,,,-1.80E-04,8.80E-02,,,,,-1.80E-04,-3.84E-01
,,,-1.80E-04,9.60E-02,,,,,-1.80E-04,-3.84E-01
,,,-1.80E-04,9.60E-02,,,,,-1.80E-04,-3.84E-01
,,,-1.80E-04,9.60E-02,,,,,-1.80E-04,-3.84E-01
,,,-1.80E-04,9.60E-02,,,,,-1.80E-04,-3.80E-01
,,,-1.79E-04,9.60E-02,,,,,-1.79E-04,-3.80E-01
,,,-1.79E-04,9.60E-02,,,,,-1.79E-04,-3.84E-01
,,,-1.79E-04,1.04E-01,,,,,-1.79E-04,-3.80E-01
,,,-1.79E-04,8.80E-02,,,,,-1.79E-04,-3.76E-01
,,,-1.79E-04,9.60E-02,,,,,-1.79E-04,-3.72E-01
,,,-1.78E-04,9.60E-02,,,,,-1.78E-04,-3.68E-01
,,,-1.78E-04,1.04E-01,,,,,-1.78E-04,-3.72E-01
,,,-1.78E-04,9.60E-02,,,,,-1.78E-04,-3.80E-01
,,,-1.78E-04,9.60E-02,,,,,-1.78E-04,-3.64E-01
,,,-1.78E-04,1.04E-01,,,,,-1.78E-04,-3.68E-01
,,,-1.77E-04,9.60E-02,,,,,-1.77E-04,-3.72E-01
,,,-1.77E-04,8.80E-02,,,,,-1.77E-04,-3.64E-01
,,,-1.77E-04,8.80E-02,,,,,-1.77E-04,-3.60E-01
,,,-1.77E-04,8.80E-02,,,,,-1.77E-04,-3.60E-01
,,,-1.77E-04,1.04E-01,,,,,-1.77E-04,-3.64E-01
,,,-1.76E-04,9.60E-02,,,,,-1.76E-04,-3.60E-01
,,,-1.76E-04,9.60E-02,,,,,-1.76E-04,-3.60E-01
,,,-1.76E-04,9.60E-02,,,,,-1.76E-04,-3.60E-01
,,,-1.76E-04,8.80E-02,,,,,-1.76E-04,-3.56E-01
,,,-1.76E-04,8.80E-02,,,,,-1.76E-04,-3.52E-01
,,,-1.75E-04,9.60E-02,,,,,-1.75E-04,-3.52E-01
,,,-1.75E-04,8.80E-02,,,,,-1.75E-04,-3.44E-01
,,,-1.75E-04,8.80E-02,,,,,-1.75E-04,-3.48E-01
,,,-1.75E-04,1.04E-01,,,,,-1.75E-04,-3.44E-01
,,,-1.75E-04,8.80E-02,,,,,-1.75E-04,-3.40E-01
,,,-1.74E-04,8.00E-02,,,,,-1.74E-04,-3.40E-01
,,,-1.74E-04,9.60E-02,,,,,-1.74E-04,-3.40E-01
,,,-1.74E-04,8.80E-02,,,,,-1.74E-04,-3.36E-01
,,,-1.74E-04,8.80E-02,,,,,-1.74E-04,-3.32E-01
,,,-1.74E-04,8.80E-02,,,,,-1.74E-04,-3.28E-01
,,,-1.73E-04,8.80E-02,,,,,-1.73E-04,-3.24E-01
,,,-1.73E-04,8.00E-02,,,,,-1.73E-04,-3.20E-01
,,,-1.73E-04,8.00E-02,,,,,-1.73E-04,-3.24E-01
,,,-1.73E-04,8.80E-02,,,,,-1.73E-04,-3.20E-01
,,,-1.73E-04,7.20E-02,,,,,-1.73E-04,-3.16E-01
,,,-1.72E-04,8.80E-02,,,,,-1.72E-04,-3.12E-01
,,,-1.72E-04,7.20E-02,,,,,-1.72E-04,-3.12E-01
,,,-1.72E-04,7.20E-02,,,,,-1.72E-04,-3.04E-01
,,,-1.72E-04,8.80E-02,,,,,-1.72E-04,-3.04E-01
,,,-1.72E-04,7.20E-02,,,,,-1.72E-04,-3.04E-01
,,,-1.71E-04,7.20E-02,,,,,-1.71E-04,-3.00E-01
,,,-1.71E-04,6.40E-02,,,,,-1.71E-04,-3.00E-01
,,,-1.71E-04,6.40E-02,,,,,-1.71E-04,-2.96E-01
,,,-1.71E-04,8.00E-02,,,,,-1.71E-04,-2.88E-01
,,,-1.71E-04,6.40E-02,,,,,-1.71E-04,-2.84E-01
,,,-1.70E-04,7.20E-02,,,,,-1.70E-04,-2.84E-01
,,,-1.70E-04,7.20E-02,,,,,-1.70E-04,-2.84E-01
,,,-1.70E-04,7.20E-02,,,,,-1.70E-04,-2.76E-01
,,,-1.70E-04,6.40E-02,,,,,-1.70E-04,-2.72E-01
,,,-1.70E-04,7.20E-02,,,,,-1.70E-04,-2.76E-01
,,,-1.69E-04,7.20E-02,,,,,-1.69E-04,-2.64E-01
,,,-1.69E-04,6.40E-02,,,,,-1.69E-04,-2.64E-01
,,,-1.69E-04,6.40E-02,,,,,-1.69E-04,-2.60E-01
,,,-1.69E-04,6.40E-02,,,,,-1.69E-04,-2.60E-01
,,,-1.69E-04,6.40E-02,,,,,-1.69E-04,-2.52E-01
,,,-1.68E-04,6.40E-02,,,,,-1.68E-04,-2.52E-01
,,,-1.68E-04,6.40E-02,,,,,-1.68E-04,-2.44E-01
,,,-1.68E-04,6.40E-02,,,,,-1.68E-04,-2.40E-01
,,,-1.68E-04,5.60E-02,,,,,-1.68E-04,-2.36E-01
,,,-1.68E-04,6.40E-02,,,,,-1.68E-04,-2.36E-01
,,,-1.67E-04,6.40E-02,,,,,-1.67E-04,-2.24E-01
,,,-1.67E-04,5.60E-02,,,,,-1.67E-04,-2.28E-01
,,,-1.67E-04,6.40E-02,,,,,-1.67E-04,-2.20E-01
,,,-1.67E-04,5.60E-02,,,,,-1.67E-04,-2.16E-01
,,,-1.67E-04,5.60E-02,,,,,-1.67E-04,-2.12E-01
,,,-1.66E-04,4.80E-02,,,,,-1.66E-04,-2.12E-01
,,,-1.66E-04,5.60E-02,,,,,-1.66E-04,-2.08E-01
,,,-1.66E-04,4.80E-02,,,,,-1.66E-04,-2.00E-01
,,,-1.66E-04,4.80E-02,,,,,-1.66E-04,-2.00E-01
,,,-1.66E-04,4.00E-02,,,,,-1.66E-04,-1.96E-01
,,,-1.65E-04,4.00E-02,,,,,-1.65E-04,-1.88E-01
,,,-1.65E-04,4.00E-02,,,,,-1.65E-04,-1.88E-01
